  ____       _          ____  _                 
 |  _ \ ___ | |__   ___/ ___|| |_ ___  _ __ ___ 
 | |_) / _ \| '_ \ / _ \___ \| __/ _ \| '__/ _ \
 |  _ < (_) | |_) | (_) |__) | || (_) | | |  __/
 |_| \_\___/|_.__/ \___/____/ \__\___/|_|  \___|
                                                